<svg width="44" height="44" xmlns="http://www.w3.org/2000/svg">
 <defs>
    <linearGradient id="grad1" x1="0%" y1="0%" x2="0%" y2="100%">
      <stop offset="10%" style="stop-color:rgb(255,255,255);stop-opacity:1" />
      <stop offset="100%" style="stop-color:rgb(200,200,200);stop-opacity:0.6" />
    </linearGradient>
 </defs>

 <g>
  <title>background</title>
  <rect fill="url(#grad1)" id="canvas_background" height="46" width="46" y="-1" x="-1"/>
 </g>
 <g>
  <title>Layer 1</title>
  <rect stroke="#171766" fill-opacity="0" id="svg_2" height="44" width="44" y="0" x="0" stroke-width="2" fill="#ffffff"/>
  <text xml:space="preserve" text-anchor="start" font-family="'Times New Roman', Times, serif" font-size="56" id="svg_1" y="41.25039" x="2.15003" stroke-width="0" stroke="#000" fill="#171766">F</text>
 </g>
</svg>